…
    ## New names:
    ## Rows: 3220 Columns: 7
    ## ── Column specification
    ## ──────────────────────────────────────────────────────── Delimiter: "," chr
    ## (5): Geography, Geographic Area Name, Annotation of Estimate!!Total, Mar... dbl
    ## (1): Estimate!!Total lgl (1): ...7
    ## ℹ Use `spec()` to retrieve the full column specification for this data. ℹ
    ## Specify the column types or set `show_col_types = FALSE` to quiet this message.
    ## • `` -> `...7`

``` r
df_pop
```

    ## # A tibble: 3,220 × 7
    ##    Geography      `Geographic Area Name`   Estim…¹ Annot…² Margi…³ Annot…⁴ ...7 
    ##    <chr>          <chr>                      <dbl> <chr>   <chr>   <chr>   <lgl>
    ##  1 0500000US01001 Autauga County, Alabama    55200 null    *****   *****   NA   
    ##  2 0500000US01003 Baldwin County, Alabama   208107 null    *****   *****   NA   
    ##  3 0500000US01005 Barbour County, Alabama    25782 null    *****   *****   NA   
    ##  4 0500000US01007 Bibb County, Alabama       22527 null    *****   *****   NA   
    ##  5 0500000US01009 Blount County, Alabama     57645 null    *****   *****   NA   
    ##  6 0500000US01011 Bullock County, Alabama    10352 null    *****   *****   NA   
    ##  7 0500000US01013 Butler County, Alabama     20025 null    *****   *****   NA   
    ##  8 0500000US01015 Calhoun County, Alabama   115098 null    *****   *****   NA   
    ##  9 0500000US01017 Chambers County, Alabama   33826 null    *****   *****   NA   
    ## 10 0500000US01019 Cherokee County, Alabama   25853 null    *****   *****   NA   
    ## # … with 3,210 more rows, and abbreviated variable names ¹​`Estimate!!Total`,
    ## #   ²​`Annotation of Estimate!!Total`, ³​`Margin of Error!!Total`,
    ## #   ⁴​`Annotation of Margin of Error!!Total`
…
### **q3** Process the `id` column of `df_pop` to create a `fips` column.

``` r
## TASK: Create a `fips` column by extracting the county code
df_q3 <- df_pop %>%
  rename(id = "Geography") %>%
  mutate(
    "fips" = str_sub(id, start = -5),
  )

df_q3
```

    ## # A tibble: 3,220 × 8
    ##    id             Geographic Area …¹ Estim…² Annot…³ Margi…⁴ Annot…⁵ ...7  fips 
    ##    <chr>          <chr>                <dbl> <chr>   <chr>   <chr>   <lgl> <chr>
    ##  1 0500000US01001 Autauga County, A…   55200 null    *****   *****   NA    01001
    ##  2 0500000US01003 Baldwin County, A…  208107 null    *****   *****   NA    01003
    ##  3 0500000US01005 Barbour County, A…   25782 null    *****   *****   NA    01005
    ##  4 0500000US01007 Bibb County, Alab…   22527 null    *****   *****   NA    01007
    ##  5 0500000US01009 Blount County, Al…   57645 null    *****   *****   NA    01009
    ##  6 0500000US01011 Bullock County, A…   10352 null    *****   *****   NA    01011
    ##  7 0500000US01013 Butler County, Al…   20025 null    *****   *****   NA    01013
    ##  8 0500000US01015 Calhoun County, A…  115098 null    *****   *****   NA    01015
    ##  9 0500000US01017 Chambers County, …   33826 null    *****   *****   NA    01017
    ## 10 0500000US01019 Cherokee County, …   25853 null    *****   *****   NA    01019
    ## # … with 3,210 more rows, and abbreviated variable names
    ## #   ¹​`Geographic Area Name`, ²​`Estimate!!Total`,
    ## #   ³​`Annotation of Estimate!!Total`, ⁴​`Margin of Error!!Total`,
    ## #   ⁵​`Annotation of Margin of Error!!Total`
…
    ## [1] "Very good!"

### **q4** Join `df_covid` with `df_q3` by the `fips` column. Use the proper type of join to preserve *only* the rows in `df_covid`.

``` r
## TASK: Join df_covid and df_q3 by fips.
df_q4 <- left_join(df_covid, df_q3, by =  "fips")

df_q4
```

    ## # A tibble: 884,737 × 13
    ##    date       county      state fips  cases deaths id    Geogr…¹ Estim…² Annot…³
    ##    <date>     <chr>       <chr> <chr> <dbl>  <dbl> <chr> <chr>     <dbl> <chr>  
    ##  1 2020-01-21 Snohomish   Wash… 53061     1      0 0500… Snohom…  7.87e5 null   
    ##  2 2020-01-22 Snohomish   Wash… 53061     1      0 0500… Snohom…  7.87e5 null   
    ##  3 2020-01-23 Snohomish   Wash… 53061     1      0 0500… Snohom…  7.87e5 null   
    ##  4 2020-01-24 Cook        Illi… 17031     1      0 0500… Cook C…  5.22e6 null   
    ##  5 2020-01-24 Snohomish   Wash… 53061     1      0 0500… Snohom…  7.87e5 null   
    ##  6 2020-01-25 Orange      Cali… 06059     1      0 0500… Orange…  3.16e6 null   
    ##  7 2020-01-25 Cook        Illi… 17031     1      0 0500… Cook C…  5.22e6 null   
    ##  8 2020-01-25 Snohomish   Wash… 53061     1      0 0500… Snohom…  7.87e5 null   
    ##  9 2020-01-26 Maricopa    Ariz… 04013     1      0 0500… Marico…  4.25e6 null   
    ## 10 2020-01-26 Los Angeles Cali… 06037     1      0 0500… Los An…  1.01e7 null   
    ## # … with 884,727 more rows, 3 more variables: `Margin of Error!!Total` <chr>,
    ## #   `Annotation of Margin of Error!!Total` <chr>, ...7 <lgl>, and abbreviated
    ## #   variable names ¹​`Geographic Area Name`, ²​`Estimate!!Total`,
    ## #   ³​`Annotation of Estimate!!Total`
…
df_data
```

    ## # A tibble: 884,737 × 7
    ##    date       county      state      fips  cases deaths population
    ##    <date>     <chr>       <chr>      <chr> <dbl>  <dbl>      <dbl>
    ##  1 2020-01-21 Snohomish   Washington 53061     1      0     786620
    ##  2 2020-01-22 Snohomish   Washington 53061     1      0     786620
    ##  3 2020-01-23 Snohomish   Washington 53061     1      0     786620
    ##  4 2020-01-24 Cook        Illinois   17031     1      0    5223719
    ##  5 2020-01-24 Snohomish   Washington 53061     1      0     786620
    ##  6 2020-01-25 Orange      California 06059     1      0    3164182
    ##  7 2020-01-25 Cook        Illinois   17031     1      0    5223719
    ##  8 2020-01-25 Snohomish   Washington 53061     1      0     786620
    ##  9 2020-01-26 Maricopa    Arizona    04013     1      0    4253913
    ## 10 2020-01-26 Los Angeles California 06037     1      0   10098052
    ## # … with 884,727 more rows
…
    ## `summarise()` has grouped output by 'state', 'county'. You can override using
    ## the `.groups` argument.

``` r
top_cases
```

    ## # A tibble: 3,273 × 4
    ## # Groups:   state, county [3,273]
    ##    state        county         fips max_cases
    ##    <chr>        <chr>         <dbl>     <dbl>
    ##  1 Colorado     Crowley        8025    29254.
    ##  2 Tennessee    Trousdale     47169    22553.
    ##  3 South Dakota Dewey         46041    21855.
    ##  4 Kansas       Norton        20137    21491.
    ##  5 South Dakota Bon Homme     46009    21194.
    ##  6 Arkansas     Lincoln        5079    20591.
    ##  7 Georgia      Chattahoochee 13053    20535.
    ##  8 South Dakota Buffalo       46017    19971.
    ##  9 Tennessee    Lake          47095    18708.
    ## 10 Iowa         Buena Vista   19021    18337.
    ## # … with 3,263 more rows
``` r
top_death <- df_normalized %>%
  group_by(state, county, fips)  %>%
  summarize(max_death = max(deaths_per100k)) %>%
  arrange(desc(max_death))
```

    ## `summarise()` has grouped output by 'state', 'county'. You can override using
    ## the `.groups` argument.

``` r
top_death
```

    ## # A tibble: 3,273 × 4
    ## # Groups:   state, county [3,273]
    ##    state        county        fips max_death
    ##    <chr>        <chr>        <dbl>     <dbl>
    ##  1 Kansas       Gove         20063      764.
    ##  2 South Dakota Jerauld      46073      739.
    ##  3 North Dakota Dickey       38021      644.
    ##  4 South Dakota Gregory      46053      619.
    ##  5 South Dakota Turner       46125      593.
    ##  6 North Dakota Foster       38031      578.
    ##  7 Wisconsin    Iron         55051      577.
    ##  8 South Dakota Hamlin       46057      567.
    ##  9 Virginia     Emporia city 51595      558.
    ## 10 Georgia      Hancock      13141      551.
    ## # … with 3,263 more rows
…
