…
    ## Rows: 3220 Columns: 7
    ## ── Column specification ────────────────────────────────────────────────────────
    ## Delimiter: ","
    ## chr (5): id, geographic_area_name, population_moe, X5, X6
    ## dbl (1): population_estimate
    ## lgl (1): X7
    ## 
    ## ℹ Use `spec()` to retrieve the full column specification for this data.
    ## ℹ Specify the column types or set `show_col_types = FALSE` to quiet this message.

``` r
df_pop
```

    ## # A tibble: 3,220 × 7
    ##    id             geographic_area_name     populatio…¹ popul…² X5    X6    X7   
    ##    <chr>          <chr>                          <dbl> <chr>   <chr> <chr> <lgl>
    ##  1 0500000US01001 Autauga County, Alabama        55200 null    ***** ***** NA   
    ##  2 0500000US01003 Baldwin County, Alabama       208107 null    ***** ***** NA   
    ##  3 0500000US01005 Barbour County, Alabama        25782 null    ***** ***** NA   
    ##  4 0500000US01007 Bibb County, Alabama           22527 null    ***** ***** NA   
    ##  5 0500000US01009 Blount County, Alabama         57645 null    ***** ***** NA   
    ##  6 0500000US01011 Bullock County, Alabama        10352 null    ***** ***** NA   
    ##  7 0500000US01013 Butler County, Alabama         20025 null    ***** ***** NA   
    ##  8 0500000US01015 Calhoun County, Alabama       115098 null    ***** ***** NA   
    ##  9 0500000US01017 Chambers County, Alabama       33826 null    ***** ***** NA   
    ## 10 0500000US01019 Cherokee County, Alabama       25853 null    ***** ***** NA   
    ## # … with 3,210 more rows, and abbreviated variable names ¹​population_estimate,
    ## #   ²​population_moe
…
    ## Rows: 3220 Columns: 483
    ## ── Column specification ────────────────────────────────────────────────────────
    ## Delimiter: ","
    ## chr (306): Geography, Geographic Area Name, Annotation of Margin of Error!!N...
    ## dbl (176): Estimate!!Number!!HOUSEHOLD INCOME BY RACE AND HISPANIC OR LATINO...
    ## lgl   (1): ...483
    ## 
    ## ℹ Use `spec()` to retrieve the full column specification for this data.
    ## ℹ Specify the column types or set `show_col_types = FALSE` to quiet this message.

``` r
df_income
```

    ## # A tibble: 3,220 × 243
    ##    id    Geogr…¹ Estim…² Margi…³ Estim…⁴ Margi…⁵ Estim…⁶ Margi…⁷ Estim…⁸ Margi…⁹
    ##    <chr> <chr>     <dbl>   <dbl>   <dbl>   <dbl>   <dbl>   <dbl>   <dbl>   <dbl>
    ##  1 0500… Autaug…   21115     383   16585     363    4085     205      34      33
    ##  2 0500… Baldwi…   78622    1183   69544    1042    6425     500     460     171
    ##  3 0500… Barbou…    9186     280    4729     211    4135     248       9      16
    ##  4 0500… Bibb C…    6840     321    5588     346    1172     200       0      22
    ##  5 0500… Blount…   20600     396   20054     417     190      98      24      27
    ##  6 0500… Bulloc…    3609     196     881     119    2681     212      44      52
    ##  7 0500… Butler…    6708     274    3821     173    2752     207       2       4
    ##  8 0500… Calhou…   45033     683   33820     559    9514     435     152      64
    ##  9 0500… Chambe…   13516     372    7953     296    5268     235      54      42
    ## 10 0500… Cherok…   10606     370    9953     356     477      90      33      32
    ## # … with 3,210 more rows, 233 more variables:
    ## #   `Estimate!!Number!!HOUSEHOLD INCOME BY RACE AND HISPANIC OR LATINO ORIGIN OF HOUSEHOLDER!!Households!!One race--!!Asian` <dbl>,
    ## #   `Margin of Error!!Number MOE!!HOUSEHOLD INCOME BY RACE AND HISPANIC OR LATINO ORIGIN OF HOUSEHOLDER!!Households!!One race--!!Asian` <dbl>,
    ## #   `Estimate!!Number!!HOUSEHOLD INCOME BY RACE AND HISPANIC OR LATINO ORIGIN OF HOUSEHOLDER!!Households!!One race--!!Native Hawaiian and Other Pacific Islander` <dbl>,
    ## #   `Margin of Error!!Number MOE!!HOUSEHOLD INCOME BY RACE AND HISPANIC OR LATINO ORIGIN OF HOUSEHOLDER!!Households!!One race--!!Native Hawaiian and Other Pacific Islander` <dbl>,
    ## #   `Estimate!!Number!!HOUSEHOLD INCOME BY RACE AND HISPANIC OR LATINO ORIGIN OF HOUSEHOLDER!!Households!!One race--!!Some other race` <dbl>,
    ## #   `Margin of Error!!Number MOE!!HOUSEHOLD INCOME BY RACE AND HISPANIC OR LATINO ORIGIN OF HOUSEHOLDER!!Households!!One race--!!Some other race` <dbl>, …
…
#   separate(
#     col = ("dropping_this"), 
#     into = c("drop_this", "category"),
#     sep = (-17)
#   ) %>%
#   select(
#     -contains("drop")
#   ) %>%
#   rename(
#     geographic_area_name = "Geographic Area Name"
#   )
df_q3
```

    ## # A tibble: 16,100 × 5
    ##    id             geographic_area_name    category          income_est…¹ incom…²
    ##    <chr>          <chr>                   <chr>                    <dbl>   <dbl>
    ##  1 0500000US01001 Autauga County, Alabama 2-person families        64947    6663
    ##  2 0500000US01001 Autauga County, Alabama 3-person families        80172   14181
    ##  3 0500000US01001 Autauga County, Alabama 4-person families        85455   10692
    ##  4 0500000US01001 Autauga County, Alabama 5-person families        88601   20739
    ##  5 0500000US01001 Autauga County, Alabama 6-person families       103787   12387
    ##  6 0500000US01003 Baldwin County, Alabama 2-person families        63975    2297
    ##  7 0500000US01003 Baldwin County, Alabama 3-person families        79390    8851
    ##  8 0500000US01003 Baldwin County, Alabama 4-person families        88458    5199
    ##  9 0500000US01003 Baldwin County, Alabama 5-person families        91259    7011
    ## 10 0500000US01003 Baldwin County, Alabama 6-person families        69609   23175
    ## # … with 16,090 more rows, and abbreviated variable names ¹​income_estimate,
    ## #   ²​income_moe
…
### **q4** Convert the margin of error to standard error. Additionally, compute a 99% confidence interval on income, and normalize the standard error to `income_CV = income_SE / income_estimate`. Provide these columns with the names `income_SE, income_lo, income_hi, income_CV`.

``` r
df_q4 <- df_q3 %>%
  mutate(
    income_SE = income_moe/1.645,
    income_lo = income_estimate - income_SE*2.576,
    income_hi = income_estimate + income_SE*2.576,
    income_CV = income_SE/income_estimate
  )

df_q4
```

    ## # A tibble: 16,100 × 9
    ##    id            geogr…¹ categ…² incom…³ incom…⁴ incom…⁵ incom…⁶ incom…⁷ incom…⁸
    ##    <chr>         <chr>   <chr>     <dbl>   <dbl>   <dbl>   <dbl>   <dbl>   <dbl>
    ##  1 0500000US010… Autaug… 2-pers…   64947    6663   4050.  54513.  75381.  0.0624
    ##  2 0500000US010… Autaug… 3-pers…   80172   14181   8621.  57965. 102379.  0.108 
    ##  3 0500000US010… Autaug… 4-pers…   85455   10692   6500.  68712. 102198.  0.0761
    ##  4 0500000US010… Autaug… 5-pers…   88601   20739  12607.  56125. 121077.  0.142 
    ##  5 0500000US010… Autaug… 6-pers…  103787   12387   7530.  84389. 123185.  0.0726
    ##  6 0500000US010… Baldwi… 2-pers…   63975    2297   1396.  60378.  67572.  0.0218
    ##  7 0500000US010… Baldwi… 3-pers…   79390    8851   5381.  65530.  93250.  0.0678
    ##  8 0500000US010… Baldwi… 4-pers…   88458    5199   3160.  80317.  96599.  0.0357
    ##  9 0500000US010… Baldwi… 5-pers…   91259    7011   4262.  80280. 102238.  0.0467
    ## 10 0500000US010… Baldwi… 6-pers…   69609   23175  14088.  33318. 105900.  0.202 
    ## # … with 16,090 more rows, and abbreviated variable names
    ## #   ¹​geographic_area_name, ²​category, ³​income_estimate, ⁴​income_moe,
    ## #   ⁵​income_SE, ⁶​income_lo, ⁷​income_hi, ⁸​income_CV
…
df_data <- right_join(df_pop, df_q4, by = c("id", "geographic_area_name"))
```

    ## Warning in right_join(df_pop, df_q4, by = c("id", "geographic_area_name")): Each row in `x` is expected to match at most 1 row in `y`.
    ## ℹ Row 1 of `x` matches multiple rows.
    ## ℹ If multiple matches are expected, set `multiple = "all"` to silence this
    ##   warning.

``` r
df_data 
```

    ## # A tibble: 16,100 × 14
    ##    id          geogr…¹ popul…² popul…³ X5    X6    X7    categ…⁴ incom…⁵ incom…⁶
    ##    <chr>       <chr>     <dbl> <chr>   <chr> <chr> <lgl> <chr>     <dbl>   <dbl>
    ##  1 0500000US0… Autaug…   55200 null    ***** ***** NA    2-pers…   64947    6663
    ##  2 0500000US0… Autaug…   55200 null    ***** ***** NA    3-pers…   80172   14181
    ##  3 0500000US0… Autaug…   55200 null    ***** ***** NA    4-pers…   85455   10692
    ##  4 0500000US0… Autaug…   55200 null    ***** ***** NA    5-pers…   88601   20739
    ##  5 0500000US0… Autaug…   55200 null    ***** ***** NA    6-pers…  103787   12387
    ##  6 0500000US0… Baldwi…  208107 null    ***** ***** NA    2-pers…   63975    2297
    ##  7 0500000US0… Baldwi…  208107 null    ***** ***** NA    3-pers…   79390    8851
    ##  8 0500000US0… Baldwi…  208107 null    ***** ***** NA    4-pers…   88458    5199
    ##  9 0500000US0… Baldwi…  208107 null    ***** ***** NA    5-pers…   91259    7011
    ## 10 0500000US0… Baldwi…  208107 null    ***** ***** NA    6-pers…   69609   23175
    ## # … with 16,090 more rows, 4 more variables: income_SE <dbl>, income_lo <dbl>,
    ## #   income_hi <dbl>, income_CV <dbl>, and abbreviated variable names
    ## #   ¹​geographic_area_name, ²​population_estimate, ³​population_moe, ⁴​category,
    ## #   ⁵​income_estimate, ⁶​income_moe
…
``` r
df_ages 
```

    ## # A tibble: 3,220 × 10
    ##    id    Geogr…¹ Estim…² Margi…³ Estim…⁴ Margi…⁵ Estim…⁶ Margi…⁷ Estim…⁸ Margi…⁹
    ##    <chr> <chr>     <dbl>   <dbl>   <dbl>   <dbl>   <dbl>   <dbl>   <dbl>   <dbl>
    ##  1 0500… Autaug…      NA      NA   61203    4583   79748    5751   40822    5108
    ##  2 0500… Baldwi…   40051    5279   62192    3827   63921    2567   45680    1847
    ##  3 0500… Barbou…   17788    7151   35140    6613   40255    3537   30819    2922
    ##  4 0500… Bibb C…   26473   18165   53382    4797   52515    8477   35503    3633
    ##  5 0500… Blount…   31058   16184   59345    6438   52951    2868   34070    1917
    ##  6 0500… Bulloc…    8404    2818   14568    9504   44609    9576   45742   18567
    ##  7 0500… Butler…   29861    9594   41543    3962   42328    5710   34795    3885
    ##  8 0500… Calhou…   22188    3907   50763    3746   55428    2397   36555    2228
    ##  9 0500… Chambe…   33818    5610   48750    5955   44894    4311   30335    3469
    ## 10 0500… Cherok…   31297   15697   51572    8013   41663    7681   35253    3446
    ## # … with 3,210 more rows, and abbreviated variable names
    ## #   ¹​`Geographic Area Name`,
    ## #   ²​`Estimate!!Median income (dollars)!!HOUSEHOLD INCOME BY AGE OF HOUSEHOLDER!!15 to 24 years`,
    ## #   ³​`Margin of Error!!Median income (dollars) MOE!!HOUSEHOLD INCOME BY AGE OF HOUSEHOLDER!!15 to 24 years`,
    ## #   ⁴​`Estimate!!Median income (dollars)!!HOUSEHOLD INCOME BY AGE OF HOUSEHOLDER!!25 to 44 years`,
    ## #   ⁵​`Margin of Error!!Median income (dollars) MOE!!HOUSEHOLD INCOME BY AGE OF HOUSEHOLDER!!25 to 44 years`,
    ## #   ⁶​`Estimate!!Median income (dollars)!!HOUSEHOLD INCOME BY AGE OF HOUSEHOLDER!!45 to 64 years`, …
…
